Experiment No,Location,Date,Injection time,End time,Salt mass [g],145,309,Q1,Q2,t1,t2
1,Lake,24.08.2022,11:29,11:38,3000.0,2,1,5.7,5.9,81.0,132.0
2,UpperGlacier,24.08.2022,15:05,15:22,100.0,1,2,0.079,0.095,126.0,237.0
3,MidGlacier,24.08.2022,16:01,16:17,50.0,2,1,0.014,0.011,45.0,206.0
4,UpperGlacier,25.08.2022,10:37,10:53,50.0,1,2,0.036,0.047,105.0,279.0
5,MidGlacier,25.08.2022,11:42,11:56,10.0,1,2,0.01,0.013,101.0,255.0
6,Collapse,25.08.2022,14:24,14:47,5000.0,2,1,9.5,10.0,407.0,408.0
7,Lake,25.08.2022,16:50,17:00,5500.0,2,1,11.0,14.0,53.0,82.0
8,Lake,26.08.2022,08:54,09:08,4500.0,2,1,9.8,10.0,76.0,106.0
9,MidGlacier,26.08.2022,11:15,11:38,20.0,1,2,0.0039,0.0048,149.0,382.0
10,MidGlacier,26.08.2022,11:51,12:05,30.0,1,2,0.0063,0.0072,90.0,249.0
11,MidGlacier,26.08.2022,13:55,14:07,40.0,1,2,0.0045,0.0051,121.0,333.0
12,Collapse,26.08.2022,14:27,14:46,9000.0,1,2,8.5,8.4,414.0,414.0
13,UpperGlacier,27.08.2022,09:56,10:26,100.0,2,1,0.019,0.022,101.0,258.0
